pipeline/pipeline-verilog/wave.vcd
$date
	Tue Jun 17 15:54:22 2025
$end
$version
	Icarus Verilog
$end
$timescale
	1ps
$end
$scope module testbench $end
$var reg 1 ! clk $end
$var reg 1 " reset $end
$scope module cpu0 $end
$var wire 1 # beq_taken $end
$var wire 32 $ branch_imm [31:0] $end
$var wire 1 ! clk $end
$var wire 5 % rd_wb [4:0] $end
$var wire 1 & reg_write_enable_wb $end
$var wire 1 " reset $end
$var wire 32 ' write_data_wb [31:0] $end
$var wire 1 ( wb_reg_write_out $end
$var wire 5 ) wb_rd_out [4:0] $end
$var wire 32 * wb_mem_data_out [31:0] $end
$var wire 32 + wb_alu_result_out [31:0] $end
$var wire 32 , rt_data [31:0] $end
$var wire 32 - rs_data [31:0] $end
$var wire 32 . rd_data [31:0] $end
$var wire 32 / pc_next [31:0] $end
$var wire 32 0 pc_current [31:0] $end
$var wire 1 1 mem_reg_write_out_wb $end
$var wire 1 2 mem_reg_write_out $end
$var wire 5 3 mem_rd_out_wb [4:0] $end
$var wire 5 4 mem_rd_out [4:0] $end
$var wire 32 5 mem_rd_data_out [31:0] $end
$var wire 6 6 mem_opcode_out [5:0] $end
$var wire 1 7 mem_mem_write_out $end
$var wire 1 8 mem_mem_read_out $end
$var wire 32 9 mem_data_out [31:0] $end
$var wire 32 : mem_alu_result_out_wb [31:0] $end
$var wire 32 ; mem_alu_result_out [31:0] $end
$var wire 32 < instruction [31:0] $end
$var wire 32 = if2id_instruction [31:0] $end
$var wire 32 > id_rt_data [31:0] $end
$var wire 5 ? id_rt [4:0] $end
$var wire 32 @ id_rs_data [31:0] $end
$var wire 5 A id_rs [4:0] $end
$var wire 1 B id_reg_write $end
$var wire 5 C id_rd_out [4:0] $end
$var wire 32 D id_rd_data [31:0] $end
$var wire 5 E id_rd [4:0] $end
$var wire 6 F id_opcode [5:0] $end
$var wire 1 G id_mem_write $end
$var wire 1 H id_mem_read $end
$var wire 32 I id_imm [31:0] $end
$var wire 1 J id_beq_taken $end
$var wire 32 K ex_rt_data [31:0] $end
$var wire 32 L ex_rs_data [31:0] $end
$var wire 1 M ex_reg_write_out $end
$var wire 1 N ex_reg_write $end
$var wire 5 O ex_rd_out_out [4:0] $end
$var wire 5 P ex_rd_out [4:0] $end
$var wire 32 Q ex_rd_data_out [31:0] $end
$var wire 32 R ex_rd_data [31:0] $end
$var wire 6 S ex_opcode_out [5:0] $end
$var wire 6 T ex_opcode [5:0] $end
$var wire 1 U ex_mem_write_out $end
$var wire 1 V ex_mem_write $end
$var wire 1 W ex_mem_read_out $end
$var wire 1 X ex_mem_read $end
$var wire 32 Y ex_imm [31:0] $end
$var wire 32 Z ex_alu_result [31:0] $end
$scope module datamemory $end
$var wire 1 ! clk $end
$var wire 1 " reset $end
$var wire 32 [ write_data [31:0] $end
$var wire 1 7 mem_write_enable $end
$var wire 1 8 mem_read_enable $end
$var wire 32 \ address [31:0] $end
$var reg 32 ] data [31:0] $end
$upscope $end
$scope module ex2mem $end
$var wire 1 ! clk $end
$var wire 1 " reset $end
$var wire 1 M reg_write $end
$var wire 5 ^ rd_in [4:0] $end
$var wire 32 _ rd_data_in [31:0] $end
$var wire 6 ` opcode_in [5:0] $end
$var wire 1 U mem_write $end
$var wire 1 W mem_read $end
$var wire 32 a alu_result_in [31:0] $end
$var reg 32 b alu_result_out [31:0] $end
$var reg 1 8 mem_read_out $end
$var reg 1 7 mem_write_out $end
$var reg 6 c opcode_out [5:0] $end
$var reg 32 d rd_data_out [31:0] $end
$var reg 5 e rd_out [4:0] $end
$var reg 1 2 reg_write_out $end
$upscope $end
$scope module ex_stage $end
$var wire 1 ! clk $end
$var wire 1 " reset $end
$var wire 32 f rt_data [31:0] $end
$var wire 32 g rs_data [31:0] $end
$var wire 1 N reg_write $end
$var wire 32 h rd_data [31:0] $end
$var wire 5 i rd [4:0] $end
$var wire 6 j opcode [5:0] $end
$var wire 1 V mem_write $end
$var wire 1 X mem_read $end
$var wire 32 k imm [31:0] $end
$var reg 32 l alu_result [31:0] $end
$var reg 1 W mem_read_out $end
$var reg 1 U mem_write_out $end
$var reg 6 m opcode_out [5:0] $end
$var reg 32 n rd_data_out [31:0] $end
$var reg 5 o rd_out [4:0] $end
$var reg 1 M reg_write_out $end
$upscope $end
$scope module id2ex $end
$var wire 1 ! clk $end
$var wire 1 " reset $end
$var wire 32 p rt_data_in [31:0] $end
$var wire 32 q rs_data_in [31:0] $end
$var wire 1 B reg_write $end
$var wire 5 r rd_in [4:0] $end
$var wire 32 s rd_data_in [31:0] $end
$var wire 6 t opcode_in [5:0] $end
$var wire 1 G mem_write $end
$var wire 1 H mem_read $end
$var wire 32 u imm_in [31:0] $end
$var reg 32 v imm_out [31:0] $end
$var reg 1 X mem_read_out $end
$var reg 1 V mem_write_out $end
$var reg 6 w opcode_out [5:0] $end
$var reg 32 x rd_data_out [31:0] $end
$var reg 5 y rd_out [4:0] $end
$var reg 1 N reg_write_out $end
$var reg 32 z rs_data_out [31:0] $end
$var reg 32 { rt_data_out [31:0] $end
$upscope $end
$scope module id_stage $end
$var wire 1 ! clk $end
$var wire 1 " reset $end
$var wire 32 | rt_data [31:0] $end
$var wire 5 } rt [4:0] $end
$var wire 32 ~ rs_data [31:0] $end
$var wire 5 !" rs [4:0] $end
$var wire 32 "" rd_data [31:0] $end
$var wire 5 #" rd [4:0] $end
$var wire 6 $" opcode [5:0] $end
$var wire 32 %" instruction [31:0] $end
$var wire 32 &" imm_ext [31:0] $end
$var wire 16 '" imm16 [15:0] $end
$var reg 1 J beq_taken $end
$var reg 32 (" imm [31:0] $end
$var reg 1 H mem_read $end
$var reg 1 G mem_write $end
$var reg 32 )" rd_data_temp [31:0] $end
$var reg 5 *" rd_out [4:0] $end
$var reg 1 B reg_write $end
$var reg 32 +" rs_data_temp [31:0] $end
$var reg 32 ," rt_data_temp [31:0] $end
$upscope $end
$scope module if2id $end
$var wire 1 ! clk $end
$var wire 1 " reset $end
$var wire 32 -" instruction_in [31:0] $end
$var reg 32 ." instruction_out [31:0] $end
$upscope $end
$scope module if_stage $end
$var wire 1 ! clk $end
$var wire 1 " reset $end
$var wire 32 /" pc [31:0] $end
$var wire 32 0" instruction_pc [31:0] $end
$var reg 32 1" instruction [31:0] $end
$var reg 32 2" next_pc [31:0] $end
$scope module instMem $end
$var wire 32 3" pc [31:0] $end
$var reg 32 4" instruction [31:0] $end
$upscope $end
$upscope $end
$scope module mem2wb $end
$var wire 1 ! clk $end
$var wire 32 5" mem_data_in [31:0] $end
$var wire 1 " reset $end
$var wire 1 1 reg_write_in $end
$var wire 5 6" rd_in [4:0] $end
$var wire 32 7" alu_result_in [31:0] $end
$var reg 32 8" alu_result_out [31:0] $end
$var reg 32 9" mem_data_out [31:0] $end
$var reg 5 :" rd_out [4:0] $end
$var reg 1 ( reg_write_out $end
$upscope $end
$scope module mem_stage $end
$var wire 32 ;" alu_result [31:0] $end
$var wire 32 <" alu_result_out [31:0] $end
$var wire 5 =" rd [4:0] $end
$var wire 5 >" rd_out [4:0] $end
$var wire 1 2 reg_write $end
$var wire 1 1 reg_write_out $end
$upscope $end
$scope module pc_module $end
$var wire 1 # beq_taken $end
$var wire 32 ?" branch_imm [31:0] $end
$var wire 1 ! clk $end
$var wire 32 @" next_pc [31:0] $end
$var wire 1 " reset $end
$var reg 32 A" pc_out [31:0] $end
$upscope $end
$scope module regfile $end
$var wire 5 B" address [4:0] $end
$var wire 1 ! clk $end
$var wire 5 C" rd [4:0] $end
$var wire 1 ( reg_write_enable $end
$var wire 1 " reset $end
$var wire 5 D" rs1 [4:0] $end
$var wire 5 E" rs2 [4:0] $end
$var wire 32 F" write_data [31:0] $end
$var wire 32 G" read_data3 [31:0] $end
$var wire 32 H" read_data2 [31:0] $end
$var wire 32 I" read_data1 [31:0] $end
$var integer 32 J" i [31:0] $end
$upscope $end
$upscope $end
$upscope $end
$enddefinitions $end
#0
$dumpvars
bx J"
bx I"
bx H"
bx G"
bx F"
bx E"
bx D"
bx C"
bx B"
bx A"
bx @"
bz ?"
bx >"
bx ="
bx <"
bx ;"
bx :"
bx 9"
bx 8"
bx 7"
bx 6"
bx 5"
bx 4"
bx 3"
bx 2"
bx 1"
bx 0"
bx /"
bx ."
bx -"
bx ,"
bx +"
bx *"
bx )"
bx ("
bx '"
bx &"
bx %"
bx $"
bx #"
bx ""
bx !"
bx ~
bx }
bx |
bx {
bx z
bx y
bx x
bx w
bx v
bx u
bx t
bx s
bx r
bx q
bx p
bx o
bx n
bx m
bx l
bx k
bx j
bx i
bx h
bx g
bx f
bx e
bx d
bx c
bx b
bx a
bx `
bx _
bx ^
bx ]
bx \
bx [
bx Z
bx Y
xX
xW
xV
xU
bx T
bx S
bx R
bx Q
bx P
bx O
xN
xM
bx L
bx K
xJ
bx I
xH
xG
bx F
bx E
bx D
bx C
xB
bx A
bx @
bx ?
bx >
bx =
bx <
bx ;
bx :
bx 9
x8
x7
bx 6
bx 5
bx 4
bx 3
x2
x1
bx 0
bx /
bx .
bx -
bx ,
bx +
bx *
bx )
x(
bx '
x&
bx %
bz $
z#
x"
0!
$end
#5000
1!
#10000
b0 .
b0 ""
b0 G"
b0 ,
b0 |
b0 H"
b0 -
b0 ~
b0 I"
0J
1B
0G
0H
b0 D
b0 s
b0 )"
b0 >
b0 p
b0 ,"
b0 @
b0 q
b0 +"
b0 I
b0 u
b0 ("
b0 C
b0 r
b0 *"
b0 '
b0 F"
0M
b0 Q
b0 _
b0 n
0U
0W
b0 O
b0 ^
b0 o
b0 S
b0 `
b0 m
b0 Z
b0 a
b0 l
b0 &"
b0 '"
b0 E
b0 #"
b0 C"
b0 ?
b0 }
b0 E"
b0 A
b0 !"
b0 D"
b0 F
b0 t
b0 $"
b0 9
b0 ]
b0 5"
0&
0(
b0 +
b0 8"
b0 %
b0 B"
b0 )
b0 :"
b0 *
b0 9"
01
02
b0 5
b0 [
b0 d
07
08
b0 3
b0 6"
b0 >"
b0 4
b0 e
b0 ="
b0 6
b0 c
b0 :
b0 7"
b0 <"
b0 ;
b0 \
b0 b
b0 ;"
0N
0V
0X
b0 T
b0 j
b0 w
b0 Y
b0 k
b0 v
b0 P
b0 i
b0 y
b0 R
b0 h
b0 x
b0 K
b0 f
b0 {
b0 L
b0 g
b0 z
b0 =
b0 %"
b0 ."
b0 /
b0 2"
b0 @"
b0 <
b0 -"
b0 1"
b100000 J"
b0 0
b0 /"
b0 3"
b0 A"
0!
1"
#15000
b100000 J"
1!
#20000
0!
#25000
b100000 J"
1!
#30000
0!
0"
#35000
b100 0
b100 /"
b100 3"
b100 A"
1M
b100 /
b100 2"
b100 @"
bx <
bx -"
bx 1"
1N
1!
#40000
0!
#45000
bx .
bx ""
bx G"
bx ,
bx |
bx H"
bx -
bx ~
bx I"
0B
bx &"
bx '"
bx E
bx #"
bx C"
bx ?
bx }
bx E"
bx A
bx !"
bx D"
bx F
bx t
bx $"
b1000 0
b1000 /"
b1000 3"
b1000 A"
11
12
bx =
bx %"
bx ."
b1000 /
b1000 2"
b1000 @"
1!
#50000
0!
#55000
b10001100000000010000000000000000 0"
b10001100000000010000000000000000 4"
b1100 0
b1100 /"
b1100 3"
b1100 A"
0M
bx S
bx `
bx m
b1100 /
b1100 2"
b1100 @"
0N
bx T
bx j
bx w
1&
1(
1!
#60000
0!
#65000
b10001100000000100000000000000001 0"
b10001100000000100000000000000001 4"
b10000 0
b10000 /"
b10000 3"
b10000 A"
01
02
bx 6
bx c
b10000 /
b10000 2"
b10000 @"
b10001100000000010000000000000000 <
b10001100000000010000000000000000 -"
b10001100000000010000000000000000 1"
1!
#70000
0!
#75000
b0 0"
b0 4"
b0 .
b0 ""
b0 G"
b0 ,
b0 |
b0 H"
b0 -
b0 ~
b0 I"
1B
1H
b0 @
b0 q
b0 +"
b0 I
b0 u
b0 ("
b1 C
b1 r
b1 *"
b10100 0
b10100 /"
b10100 3"
b10100 A"
b0 &"
b0 '"
b0 E
b0 #"
b0 C"
b1 ?
b1 }
b1 E"
b0 A
b0 !"
b0 D"
b100011 F
b100011 t
b100011 $"
b10100 /
b10100 2"
b10100 @"
b10001100000000100000000000000001 <
b10001100000000100000000000000001 -"
b10001100000000100000000000000001 1"
b10001100000000010000000000000000 =
b10001100000000010000000000000000 %"
b10001100000000010000000000000000 ."
0&
0(
1!
#80000
0!
#85000
b1 I
b1 u
b1 ("
1B
1H
b10 C
b10 r
b10 *"
1M
1W
b1 O
b1 ^
b1 o
b100011 S
b100011 `
b100011 m
b1 &"
b1 '"
b10 ?
b10 }
b10 E"
b11000 0
b11000 /"
b11000 3"
b11000 A"
1N
1X
b100011 T
b100011 j
b100011 w
b1 P
b1 i
b1 y
b10001100000000100000000000000001 =
b10001100000000100000000000000001 %"
b10001100000000100000000000000001 ."
b11000 /
b11000 2"
b11000 @"
b0 <
b0 -"
b0 1"
1!
#90000
0!
#95000
b100000000110000001000000001 9
b100000000110000001000000001 ]
b100000000110000001000000001 5"
1B
0H
b0 I
b0 u
b0 ("
b0 C
b0 r
b0 *"
b11100 0
b11100 /"
b11100 3"
b11100 A"
b0 &"
b0 '"
b0 ?
b0 }
b0 E"
b0 F
b0 t
b0 $"
b1 Z
b1 a
b1 l
b10 O
b10 ^
b10 o
b11100 /
b11100 2"
b11100 @"
b0 =
b0 %"
b0 ."
b1 Y
b1 k
b1 v
b10 P
b10 i
b10 y
11
12
18
b1 3
b1 6"
b1 >"
b1 4
b1 e
b1 ="
b100011 6
b100011 c
1!
#100000
0!
#105000
b1000000001110000011000000101 9
b1000000001110000011000000101 ]
b1000000001110000011000000101 5"
b100000000110000001000000001 '
b100000000110000001000000001 F"
0W
b0 O
b0 ^
b0 o
b0 S
b0 `
b0 m
b0 Z
b0 a
b0 l
b100000 0
b100000 /"
b100000 3"
b100000 A"
1&
1(
b1 %
b1 B"
b1 )
b1 :"
b100000000110000001000000001 *
b100000000110000001000000001 9"
b10 3
b10 6"
b10 >"
b10 4
b10 e
b10 ="
b1 :
b1 7"
b1 <"
b1 ;
b1 \
b1 b
b1 ;"
0X
b0 T
b0 j
b0 w
b0 Y
b0 k
b0 v
b0 P
b0 i
b0 y
b100000 /
b100000 2"
b100000 @"
1!
#110000
0!
#115000
b0 9
b0 ]
b0 5"
b1000100001100000100000 0"
b1000100001100000100000 4"
b100100 0
b100100 /"
b100100 3"
b100100 A"
b1000000001110000011000000101 '
b1000000001110000011000000101 F"
b100100 /
b100100 2"
b100100 @"
08
b0 3
b0 6"
b0 >"
b0 4
b0 e
b0 ="
b0 6
b0 c
b0 :
b0 7"
b0 <"
b0 ;
b0 \
b0 b
b0 ;"
b1 +
b1 8"
b10 %
b10 B"
b10 )
b10 :"
b1000000001110000011000000101 *
b1000000001110000011000000101 9"
1!
#120000
0!
#125000
bx 0"
bx 4"
b0 '
b0 F"
b101000 0
b101000 /"
b101000 3"
b101000 A"
b0 +
b0 8"
b0 %
b0 B"
b0 )
b0 :"
b0 *
b0 9"
b101000 /
b101000 2"
b101000 @"
b1000100001100000100000 <
b1000100001100000100000 -"
b1000100001100000100000 1"
1!
#130000
0!
#135000
b1000000001110000011000000101 >
b1000000001110000011000000101 p
b1000000001110000011000000101 ,"
b1000000001110000011000000101 ,
b1000000001110000011000000101 |
b1000000001110000011000000101 H"
b100000000110000001000000001 @
b100000000110000001000000001 q
b100000000110000001000000001 +"
b11 C
b11 r
b11 *"
1B
b100000000110000001000000001 -
b100000000110000001000000001 ~
b100000000110000001000000001 I"
b101100 0
b101100 /"
b101100 3"
b101100 A"
b1100000100000 &"
b1100000100000 '"
b11 E
b11 #"
b11 C"
b10 ?
b10 }
b10 E"
b1 A
b1 !"
b1 D"
b101100 /
b101100 2"
b101100 @"
bx <
bx -"
bx 1"
b1000100001100000100000 =
b1000100001100000100000 %"
b1000100001100000100000 ."
1!
#140000
0!
#145000
bx .
bx ""
bx G"
bx ,
bx |
bx H"
bx -
bx ~
bx I"
0B
b0 >
b0 p
b0 ,"
b0 @
b0 q
b0 +"
b0 C
b0 r
b0 *"
b1100000010100000100000000110 Z
b1100000010100000100000000110 a
b1100000010100000100000000110 l
b11 O
b11 ^
b11 o
bx &"
bx '"
bx E
bx #"
bx C"
bx ?
bx }
bx E"
bx A
bx !"
bx D"
bx F
bx t
bx $"
b110000 0
b110000 /"
b110000 3"
b110000 A"
b11 P
b11 i
b11 y
b1000000001110000011000000101 K
b1000000001110000011000000101 f
b1000000001110000011000000101 {
b100000000110000001000000001 L
b100000000110000001000000001 g
b100000000110000001000000001 z
bx =
bx %"
bx ."
b110000 /
b110000 2"
b110000 @"
1!
#150000
0!
#155000
b110100 0
b110100 /"
b110100 3"
b110100 A"
0M
b0 O
b0 ^
b0 o
bx S
bx `
bx m
b0 Z
b0 a
b0 l
b110100 /
b110100 2"
b110100 @"
0N
bx T
bx j
bx w
b0 P
b0 i
b0 y
b0 K
b0 f
b0 {
b0 L
b0 g
b0 z
b11 3
b11 6"
b11 >"
b11 4
b11 e
b11 ="
b1100000010100000100000000110 :
b1100000010100000100000000110 7"
b1100000010100000100000000110 <"
b1100000010100000100000000110 ;
b1100000010100000100000000110 \
b1100000010100000100000000110 b
b1100000010100000100000000110 ;"
1!
#160000
0!
#165000
b1100000010100000100000000110 '
b1100000010100000100000000110 F"
b111000 0
b111000 /"
b111000 3"
b111000 A"
b1100000010100000100000000110 +
b1100000010100000100000000110 8"
b11 %
b11 B"
b11 )
b11 :"
01
02
b0 3
b0 6"
b0 >"
b0 4
b0 e
b0 ="
bx 6
bx c
b0 :
b0 7"
b0 <"
b0 ;
b0 \
b0 b
b0 ;"
b111000 /
b111000 2"
b111000 @"
1!
#170000
0!
#175000
b111100 0
b111100 /"
b111100 3"
b111100 A"
b0 '
b0 F"
b111100 /
b111100 2"
b111100 @"
0&
0(
b0 +
b0 8"
b0 %
b0 B"
b0 )
b0 :"
1!
#180000
0!
#185000
b1000000 0
b1000000 /"
b1000000 3"
b1000000 A"
b1000000 /
b1000000 2"
b1000000 @"
1!
#190000
0!
#195000
b1000100 0
b1000100 /"
b1000100 3"
b1000100 A"
b1000100 /
b1000100 2"
b1000100 @"
1!
#200000
0!
#205000
b1001000 0
b1001000 /"
b1001000 3"
b1001000 A"
b1001000 /
b1001000 2"
b1001000 @"
1!
#210000
0!
#215000
b1001100 0
b1001100 /"
b1001100 3"
b1001100 A"
b1001100 /
b1001100 2"
b1001100 @"
1!
#220000
0!
#225000
b1010000 0
b1010000 /"
b1010000 3"
b1010000 A"
b1010000 /
b1010000 2"
b1010000 @"
1!
#230000
0!
#235000
b1010100 0
b1010100 /"
b1010100 3"
b1010100 A"
b1010100 /
b1010100 2"
b1010100 @"
1!
#240000
0!
#245000
b1011000 0
b1011000 /"
b1011000 3"
b1011000 A"
b1011000 /
b1011000 2"
b1011000 @"
1!
#250000
0!
#255000
b1011100 0
b1011100 /"
b1011100 3"
b1011100 A"
b1011100 /
b1011100 2"
b1011100 @"
1!
#260000
0!
#265000
b1100000 0
b1100000 /"
b1100000 3"
b1100000 A"
b1100000 /
b1100000 2"
b1100000 @"
1!
#270000
0!
#275000
b1100100 0
b1100100 /"
b1100100 3"
b1100100 A"
b1100100 /
b1100100 2"
b1100100 @"
1!
#280000
0!
#285000
b1101000 0
b1101000 /"
b1101000 3"
b1101000 A"
b1101000 /
b1101000 2"
b1101000 @"
1!
#290000
0!
#295000
b1101100 0
b1101100 /"
b1101100 3"
b1101100 A"
b1101100 /
b1101100 2"
b1101100 @"
1!
#300000
0!
#305000
b1110000 0
b1110000 /"
b1110000 3"
b1110000 A"
b1110000 /
b1110000 2"
b1110000 @"
1!
#310000
0!
#315000
b1110100 0
b1110100 /"
b1110100 3"
b1110100 A"
b1110100 /
b1110100 2"
b1110100 @"
1!
#320000
0!
#325000
b1111000 0
b1111000 /"
b1111000 3"
b1111000 A"
b1111000 /
b1111000 2"
b1111000 @"
1!
#330000
0!
#335000
b1111100 0
b1111100 /"
b1111100 3"
b1111100 A"
b1111100 /
b1111100 2"
b1111100 @"
1!
#340000
0!
#345000
b10000000 0
b10000000 /"
b10000000 3"
b10000000 A"
b10000000 /
b10000000 2"
b10000000 @"
1!
#350000
0!
#355000
b10000100 0
b10000100 /"
b10000100 3"
b10000100 A"
b10000100 /
b10000100 2"
b10000100 @"
1!
#360000
0!
#365000
b10001000 0
b10001000 /"
b10001000 3"
b10001000 A"
b10001000 /
b10001000 2"
b10001000 @"
1!
#370000
0!
#375000
b10001100 0
b10001100 /"
b10001100 3"
b10001100 A"
b10001100 /
b10001100 2"
b10001100 @"
1!
#380000
0!
#385000
b10010000 0
b10010000 /"
b10010000 3"
b10010000 A"
b10010000 /
b10010000 2"
b10010000 @"
1!
#390000
0!
#395000
b10010100 0
b10010100 /"
b10010100 3"
b10010100 A"
b10010100 /
b10010100 2"
b10010100 @"
1!
#400000
0!
#405000
b10011000 0
b10011000 /"
b10011000 3"
b10011000 A"
b10011000 /
b10011000 2"
b10011000 @"
1!
#410000
0!
#415000
b10011100 0
b10011100 /"
b10011100 3"
b10011100 A"
b10011100 /
b10011100 2"
b10011100 @"
1!
#420000
0!
#425000
b10100000 0
b10100000 /"
b10100000 3"
b10100000 A"
b10100000 /
b10100000 2"
b10100000 @"
1!
#430000
0!
#435000
b10100100 0
b10100100 /"
b10100100 3"
b10100100 A"
b10100100 /
b10100100 2"
b10100100 @"
1!
#440000
0!
#445000
b10101000 0
b10101000 /"
b10101000 3"
b10101000 A"
b10101000 /
b10101000 2"
b10101000 @"
1!
#450000
0!
#455000
b10101100 0
b10101100 /"
b10101100 3"
b10101100 A"
b10101100 /
b10101100 2"
b10101100 @"
1!
#460000
0!
#465000
b10110000 0
b10110000 /"
b10110000 3"
b10110000 A"
b10110000 /
b10110000 2"
b10110000 @"
1!
#470000
0!
#475000
b10110100 0
b10110100 /"
b10110100 3"
b10110100 A"
b10110100 /
b10110100 2"
b10110100 @"
1!
#480000
0!
#485000
b10111000 0
b10111000 /"
b10111000 3"
b10111000 A"
b10111000 /
b10111000 2"
b10111000 @"
1!
#490000
0!
#495000
b10111100 0
b10111100 /"
b10111100 3"
b10111100 A"
b10111100 /
b10111100 2"
b10111100 @"
1!
#500000
0!
#505000
b11000000 0
b11000000 /"
b11000000 3"
b11000000 A"
b11000000 /
b11000000 2"
b11000000 @"
1!
#510000
0!
#515000
b11000100 0
b11000100 /"
b11000100 3"
b11000100 A"
b11000100 /
b11000100 2"
b11000100 @"
1!
#520000
0!
#525000
b11001000 0
b11001000 /"
b11001000 3"
b11001000 A"
b11001000 /
b11001000 2"
b11001000 @"
1!
#530000
0!
#535000
b11001100 0
b11001100 /"
b11001100 3"
b11001100 A"
b11001100 /
b11001100 2"
b11001100 @"
1!
#540000
0!
#545000
b11010000 0
b11010000 /"
b11010000 3"
b11010000 A"
b11010000 /
b11010000 2"
b11010000 @"
1!
#550000
0!
#555000
b11010100 0
b11010100 /"
b11010100 3"
b11010100 A"
b11010100 /
b11010100 2"
b11010100 @"
1!
#560000
0!
#565000
b11011000 0
b11011000 /"
b11011000 3"
b11011000 A"
b11011000 /
b11011000 2"
b11011000 @"
1!
#570000
0!
#575000
b11011100 0
b11011100 /"
b11011100 3"
b11011100 A"
b11011100 /
b11011100 2"
b11011100 @"
1!
#580000
0!
#585000
b11100000 0
b11100000 /"
b11100000 3"
b11100000 A"
b11100000 /
b11100000 2"
b11100000 @"
1!
#590000
0!
#595000
b11100100 0
b11100100 /"
b11100100 3"
b11100100 A"
b11100100 /
b11100100 2"
b11100100 @"
1!
#600000
0!
#605000
b11101000 0
b11101000 /"
b11101000 3"
b11101000 A"
b11101000 /
b11101000 2"
b11101000 @"
1!
#610000
0!
#615000
b11101100 0
b11101100 /"
b11101100 3"
b11101100 A"
b11101100 /
b11101100 2"
b11101100 @"
1!
#620000
0!
#625000
b11110000 0
b11110000 /"
b11110000 3"
b11110000 A"
b11110000 /
b11110000 2"
b11110000 @"
1!
#630000
0!
#635000
b11110100 0
b11110100 /"
b11110100 3"
b11110100 A"
b11110100 /
b11110100 2"
b11110100 @"
1!
#640000
0!
#645000
b11111000 0
b11111000 /"
b11111000 3"
b11111000 A"
b11111000 /
b11111000 2"
b11111000 @"
1!
#650000
0!
#655000
b11111100 0
b11111100 /"
b11111100 3"
b11111100 A"
b11111100 /
b11111100 2"
b11111100 @"
1!
#660000
0!
#665000
b100000000 0
b100000000 /"
b100000000 3"
b100000000 A"
b100000000 /
b100000000 2"
b100000000 @"
1!
#670000
0!
#675000
b100000100 0
b100000100 /"
b100000100 3"
b100000100 A"
b100000100 /
b100000100 2"
b100000100 @"
1!
#680000
0!
#685000
b100001000 0
b100001000 /"
b100001000 3"
b100001000 A"
b100001000 /
b100001000 2"
b100001000 @"
1!
#690000
0!
#695000
b100001100 0
b100001100 /"
b100001100 3"
b100001100 A"
b100001100 /
b100001100 2"
b100001100 @"
1!
#700000
0!
#705000
b100010000 0
b100010000 /"
b100010000 3"
b100010000 A"
b100010000 /
b100010000 2"
b100010000 @"
1!
#710000
0!
#715000
b100010100 0
b100010100 /"
b100010100 3"
b100010100 A"
b100010100 /
b100010100 2"
b100010100 @"
1!
#720000
0!
#725000
b100011000 0
b100011000 /"
b100011000 3"
b100011000 A"
b100011000 /
b100011000 2"
b100011000 @"
1!
#730000
0!
#735000
b100011100 0
b100011100 /"
b100011100 3"
b100011100 A"
b100011100 /
b100011100 2"
b100011100 @"
1!
#740000
0!
#745000
b100100000 0
b100100000 /"
b100100000 3"
b100100000 A"
b100100000 /
b100100000 2"
b100100000 @"
1!
#750000
0!
#755000
b100100100 0
b100100100 /"
b100100100 3"
b100100100 A"
b100100100 /
b100100100 2"
b100100100 @"
1!
#760000
0!
#765000
b100101000 0
b100101000 /"
b100101000 3"
b100101000 A"
b100101000 /
b100101000 2"
b100101000 @"
1!
#770000
0!
#775000
b100101100 0
b100101100 /"
b100101100 3"
b100101100 A"
b100101100 /
b100101100 2"
b100101100 @"
1!
#780000
0!
#785000
b100110000 0
b100110000 /"
b100110000 3"
b100110000 A"
b100110000 /
b100110000 2"
b100110000 @"
1!
#790000
0!
#795000
b100110100 0
b100110100 /"
b100110100 3"
b100110100 A"
b100110100 /
b100110100 2"
b100110100 @"
1!
#800000
0!
#805000
b100111000 0
b100111000 /"
b100111000 3"
b100111000 A"
b100111000 /
b100111000 2"
b100111000 @"
1!
#810000
0!
#815000
b100111100 0
b100111100 /"
b100111100 3"
b100111100 A"
b100111100 /
b100111100 2"
b100111100 @"
1!
#820000
0!
#825000
b101000000 0
b101000000 /"
b101000000 3"
b101000000 A"
b101000000 /
b101000000 2"
b101000000 @"
1!
#830000
0!
#835000
b101000100 0
b101000100 /"
b101000100 3"
b101000100 A"
b101000100 /
b101000100 2"
b101000100 @"
1!
#840000
0!
#845000
b101001000 0
b101001000 /"
b101001000 3"
b101001000 A"
b101001000 /
b101001000 2"
b101001000 @"
1!
#850000
0!
#855000
b101001100 0
b101001100 /"
b101001100 3"
b101001100 A"
b101001100 /
b101001100 2"
b101001100 @"
1!
#860000
0!
#865000
b101010000 0
b101010000 /"
b101010000 3"
b101010000 A"
b101010000 /
b101010000 2"
b101010000 @"
1!
#870000
0!
#875000
b101010100 0
b101010100 /"
b101010100 3"
b101010100 A"
b101010100 /
b101010100 2"
b101010100 @"
1!
#880000
0!
#885000
b101011000 0
b101011000 /"
b101011000 3"
b101011000 A"
b101011000 /
b101011000 2"
b101011000 @"
1!
#890000
0!
#895000
b101011100 0
b101011100 /"
b101011100 3"
b101011100 A"
b101011100 /
b101011100 2"
b101011100 @"
1!
#900000
0!
#905000
b101100000 0
b101100000 /"
b101100000 3"
b101100000 A"
b101100000 /
b101100000 2"
b101100000 @"
1!
#910000
0!
#915000
b101100100 0
b101100100 /"
b101100100 3"
b101100100 A"
b101100100 /
b101100100 2"
b101100100 @"
1!
#920000
0!
#925000
b101101000 0
b101101000 /"
b101101000 3"
b101101000 A"
b101101000 /
b101101000 2"
b101101000 @"
1!
#930000
0!
#935000
b101101100 0
b101101100 /"
b101101100 3"
b101101100 A"
b101101100 /
b101101100 2"
b101101100 @"
1!
#940000
0!
#945000
b101110000 0
b101110000 /"
b101110000 3"
b101110000 A"
b101110000 /
b101110000 2"
b101110000 @"
1!
#950000
0!
#955000
b101110100 0
b101110100 /"
b101110100 3"
b101110100 A"
b101110100 /
b101110100 2"
b101110100 @"
1!
#960000
0!
#965000
b101111000 0
b101111000 /"
b101111000 3"
b101111000 A"
b101111000 /
b101111000 2"
b101111000 @"
1!
#970000
0!
#975000
b101111100 0
b101111100 /"
b101111100 3"
b101111100 A"
b101111100 /
b101111100 2"
b101111100 @"
1!
#980000
0!
#985000
b110000000 0
b110000000 /"
b110000000 3"
b110000000 A"
b110000000 /
b110000000 2"
b110000000 @"
1!
#990000
0!
#995000
b110000100 0
b110000100 /"
b110000100 3"
b110000100 A"
b110000100 /
b110000100 2"
b110000100 @"
1!
#1000000
0!
#1005000
b110001000 0
b110001000 /"
b110001000 3"
b110001000 A"
b110001000 /
b110001000 2"
b110001000 @"
1!
#1010000
0!
#1015000
b110001100 0
b110001100 /"
b110001100 3"
b110001100 A"
b110001100 /
b110001100 2"
b110001100 @"
1!
#1020000
0!
#1025000
b110010000 0
b110010000 /"
b110010000 3"
b110010000 A"
b110010000 /
b110010000 2"
b110010000 @"
1!
