pipeline/pipeline-verilog/wave.vcd
$date
	Thu Jun 19 09:56:25 2025
$end
$version
	Icarus Verilog
$end
$timescale
	1ps
$end
$scope module testbench $end
$var reg 1 ! clk $end
$var reg 1 " reset $end
$scope module cpu0 $end
$var wire 1 ! clk $end
$var wire 5 # rd_wb [4:0] $end
$var wire 1 $ reg_write_enable_wb $end
$var wire 1 " reset $end
$var wire 32 % write_data_wb [31:0] $end
$var wire 1 & wb_reg_write_out $end
$var wire 5 ' wb_rd_out [4:0] $end
$var wire 32 ( wb_mem_data_out [31:0] $end
$var wire 32 ) wb_alu_result_out [31:0] $end
$var wire 32 * rt_data [31:0] $end
$var wire 32 + rs_data [31:0] $end
$var wire 32 , rd_data [31:0] $end
$var wire 32 - pc_next [31:0] $end
$var wire 32 . pc_current [31:0] $end
$var wire 1 / mem_reg_write_out_wb $end
$var wire 1 0 mem_reg_write_out $end
$var wire 5 1 mem_rd_out_wb [4:0] $end
$var wire 5 2 mem_rd_out [4:0] $end
$var wire 32 3 mem_rd_data_out [31:0] $end
$var wire 6 4 mem_opcode_out [5:0] $end
$var wire 1 5 mem_mem_write_out $end
$var wire 1 6 mem_mem_read_out $end
$var wire 32 7 mem_data_out [31:0] $end
$var wire 32 8 mem_alu_result_out_wb [31:0] $end
$var wire 32 9 mem_alu_result_out [31:0] $end
$var wire 32 : instruction [31:0] $end
$var wire 32 ; if2id_instruction [31:0] $end
$var wire 32 < id_rt_data [31:0] $end
$var wire 5 = id_rt [4:0] $end
$var wire 32 > id_rs_data [31:0] $end
$var wire 5 ? id_rs [4:0] $end
$var wire 1 @ id_reg_write $end
$var wire 5 A id_rd_out [4:0] $end
$var wire 32 B id_rd_data [31:0] $end
$var wire 5 C id_rd [4:0] $end
$var wire 6 D id_opcode [5:0] $end
$var wire 1 E id_mem_write $end
$var wire 1 F id_mem_read $end
$var wire 32 G id_imm [31:0] $end
$var wire 32 H ex_rt_data [31:0] $end
$var wire 32 I ex_rs_data [31:0] $end
$var wire 1 J ex_reg_write_out $end
$var wire 1 K ex_reg_write $end
$var wire 5 L ex_rd_out_out [4:0] $end
$var wire 5 M ex_rd_out [4:0] $end
$var wire 32 N ex_rd_data_out [31:0] $end
$var wire 32 O ex_rd_data [31:0] $end
$var wire 6 P ex_opcode_out [5:0] $end
$var wire 6 Q ex_opcode [5:0] $end
$var wire 1 R ex_mem_write_out $end
$var wire 1 S ex_mem_write $end
$var wire 1 T ex_mem_read_out $end
$var wire 1 U ex_mem_read $end
$var wire 32 V ex_imm [31:0] $end
$var wire 32 W ex_alu_result [31:0] $end
$var wire 1 X beq_taken $end
$var wire 32 Y beq_imm [31:0] $end
$scope module datamemory $end
$var wire 1 ! clk $end
$var wire 1 " reset $end
$var wire 32 Z write_data [31:0] $end
$var wire 1 5 mem_write_enable $end
$var wire 1 6 mem_read_enable $end
$var wire 32 [ address [31:0] $end
$var reg 32 \ data [31:0] $end
$upscope $end
$scope module ex2mem $end
$var wire 1 ! clk $end
$var wire 1 " reset $end
$var wire 1 J reg_write $end
$var wire 5 ] rd_in [4:0] $end
$var wire 32 ^ rd_data_in [31:0] $end
$var wire 6 _ opcode_in [5:0] $end
$var wire 1 R mem_write $end
$var wire 1 T mem_read $end
$var wire 32 ` alu_result_in [31:0] $end
$var reg 32 a alu_result_out [31:0] $end
$var reg 1 6 mem_read_out $end
$var reg 1 5 mem_write_out $end
$var reg 6 b opcode_out [5:0] $end
$var reg 32 c rd_data_out [31:0] $end
$var reg 5 d rd_out [4:0] $end
$var reg 1 0 reg_write_out $end
$upscope $end
$scope module ex_stage $end
$var wire 1 ! clk $end
$var wire 1 " reset $end
$var wire 32 e rt_data [31:0] $end
$var wire 32 f rs_data [31:0] $end
$var wire 1 K reg_write $end
$var wire 32 g rd_data [31:0] $end
$var wire 5 h rd [4:0] $end
$var wire 6 i opcode [5:0] $end
$var wire 1 S mem_write $end
$var wire 1 U mem_read $end
$var wire 32 j imm [31:0] $end
$var reg 32 k alu_result [31:0] $end
$var reg 1 T mem_read_out $end
$var reg 1 R mem_write_out $end
$var reg 6 l opcode_out [5:0] $end
$var reg 32 m rd_data_out [31:0] $end
$var reg 5 n rd_out [4:0] $end
$var reg 1 J reg_write_out $end
$upscope $end
$scope module id2ex $end
$var wire 1 ! clk $end
$var wire 1 " reset $end
$var wire 32 o rt_data_in [31:0] $end
$var wire 32 p rs_data_in [31:0] $end
$var wire 1 @ reg_write $end
$var wire 5 q rd_in [4:0] $end
$var wire 32 r rd_data_in [31:0] $end
$var wire 6 s opcode_in [5:0] $end
$var wire 1 E mem_write $end
$var wire 1 F mem_read $end
$var wire 32 t imm_in [31:0] $end
$var reg 32 u imm_out [31:0] $end
$var reg 1 U mem_read_out $end
$var reg 1 S mem_write_out $end
$var reg 6 v opcode_out [5:0] $end
$var reg 32 w rd_data_out [31:0] $end
$var reg 5 x rd_out [4:0] $end
$var reg 1 K reg_write_out $end
$var reg 32 y rs_data_out [31:0] $end
$var reg 32 z rt_data_out [31:0] $end
$upscope $end
$scope module id_stage $end
$var wire 1 ! clk $end
$var wire 1 " reset $end
$var wire 32 { rt_data [31:0] $end
$var wire 5 | rt [4:0] $end
$var wire 32 } rs_data [31:0] $end
$var wire 5 ~ rs [4:0] $end
$var wire 32 !" rd_data [31:0] $end
$var wire 5 "" rd [4:0] $end
$var wire 6 #" opcode [5:0] $end
$var wire 32 $" instruction [31:0] $end
$var wire 32 %" imm_ext [31:0] $end
$var wire 16 &" imm16 [15:0] $end
$var reg 1 '" behind_beq_flag $end
$var reg 32 (" beq_imm [31:0] $end
$var reg 1 X beq_taken $end
$var reg 32 )" imm [31:0] $end
$var reg 1 F mem_read $end
$var reg 1 E mem_write $end
$var reg 32 *" rd_data_temp [31:0] $end
$var reg 5 +" rd_out [4:0] $end
$var reg 1 @ reg_write $end
$var reg 32 ," rs_data_temp [31:0] $end
$var reg 32 -" rt_data_temp [31:0] $end
$upscope $end
$scope module if2id $end
$var wire 1 X beq_taken $end
$var wire 1 ! clk $end
$var wire 1 " reset $end
$var wire 32 ." instruction_in [31:0] $end
$var reg 32 /" instruction_out [31:0] $end
$upscope $end
$scope module if_stage $end
$var wire 1 ! clk $end
$var wire 1 " reset $end
$var wire 32 0" pc [31:0] $end
$var wire 32 1" instruction_pc [31:0] $end
$var reg 32 2" instruction [31:0] $end
$var reg 32 3" next_pc [31:0] $end
$scope module instMem $end
$var wire 32 4" pc [31:0] $end
$var reg 32 5" instruction [31:0] $end
$upscope $end
$upscope $end
$scope module mem2wb $end
$var wire 1 ! clk $end
$var wire 32 6" mem_data_in [31:0] $end
$var wire 1 " reset $end
$var wire 1 / reg_write_in $end
$var wire 5 7" rd_in [4:0] $end
$var wire 32 8" alu_result_in [31:0] $end
$var reg 32 9" alu_result_out [31:0] $end
$var reg 32 :" mem_data_out [31:0] $end
$var reg 5 ;" rd_out [4:0] $end
$var reg 1 & reg_write_out $end
$upscope $end
$scope module mem_stage $end
$var wire 32 <" alu_result [31:0] $end
$var wire 32 =" alu_result_out [31:0] $end
$var wire 5 >" rd [4:0] $end
$var wire 5 ?" rd_out [4:0] $end
$var wire 1 0 reg_write $end
$var wire 1 / reg_write_out $end
$upscope $end
$scope module pc_module $end
$var wire 1 X beq_taken $end
$var wire 32 @" branch_imm [31:0] $end
$var wire 1 ! clk $end
$var wire 32 A" next_pc [31:0] $end
$var wire 1 " reset $end
$var reg 32 B" pc_out [31:0] $end
$upscope $end
$scope module regfile $end
$var wire 5 C" address [4:0] $end
$var wire 1 ! clk $end
$var wire 5 D" rd [4:0] $end
$var wire 1 & reg_write_enable $end
$var wire 1 " reset $end
$var wire 5 E" rs1 [4:0] $end
$var wire 5 F" rs2 [4:0] $end
$var wire 32 G" write_data [31:0] $end
$var wire 32 H" read_data3 [31:0] $end
$var wire 32 I" read_data2 [31:0] $end
$var wire 32 J" read_data1 [31:0] $end
$var integer 32 K" i [31:0] $end
$upscope $end
$upscope $end
$upscope $end
$enddefinitions $end
#0
$dumpvars
bx K"
bx J"
bx I"
bx H"
bx G"
bx F"
bx E"
bx D"
bx C"
bx B"
bx A"
bx @"
bx ?"
bx >"
bx ="
bx <"
bx ;"
bx :"
bx 9"
bx 8"
bx 7"
bx 6"
bx 5"
bx 4"
bx 3"
bx 2"
bx 1"
bx 0"
bx /"
bx ."
bx -"
bx ,"
bx +"
bx *"
bx )"
bx ("
x'"
bx &"
bx %"
bx $"
bx #"
bx ""
bx !"
bx ~
bx }
bx |
bx {
bx z
bx y
bx x
bx w
bx v
bx u
bx t
bx s
bx r
bx q
bx p
bx o
bx n
bx m
bx l
bx k
bx j
bx i
bx h
bx g
bx f
bx e
bx d
bx c
bx b
bx a
bx `
bx _
bx ^
bx ]
bx \
bx [
bx Z
bx Y
xX
bx W
bx V
xU
xT
xS
xR
bx Q
bx P
bx O
bx N
bx M
bx L
xK
xJ
bx I
bx H
bx G
xF
xE
bx D
bx C
bx B
bx A
x@
bx ?
bx >
bx =
bx <
bx ;
bx :
bx 9
bx 8
bx 7
x6
x5
bx 4
bx 3
bx 2
bx 1
x0
x/
bx .
bx -
bx ,
bx +
bx *
bx )
bx (
bx '
x&
bx %
x$
bx #
x"
0!
$end
#5000
1!
#10000
b0 ,
b0 !"
b0 H"
b0 *
b0 {
b0 I"
b0 +
b0 }
b0 J"
b0 Y
b0 ("
b0 @"
0X
1@
0E
0F
b0 B
b0 r
b0 *"
b0 <
b0 o
b0 -"
b0 >
b0 p
b0 ,"
b0 G
b0 t
b0 )"
b0 A
b0 q
b0 +"
b0 %
b0 G"
0J
b0 N
b0 ^
b0 m
0R
0T
b0 L
b0 ]
b0 n
b0 P
b0 _
b0 l
b0 W
b0 `
b0 k
b0 %"
b0 &"
b0 C
b0 ""
b0 D"
b0 =
b0 |
b0 F"
b0 ?
b0 ~
b0 E"
b0 D
b0 s
b0 #"
b0 7
b0 \
b0 6"
0$
0&
b0 )
b0 9"
b0 #
b0 C"
b0 '
b0 ;"
b0 (
b0 :"
0/
00
b0 3
b0 Z
b0 c
05
06
b0 1
b0 7"
b0 ?"
b0 2
b0 d
b0 >"
b0 4
b0 b
b0 8
b0 8"
b0 ="
b0 9
b0 [
b0 a
b0 <"
0K
0S
0U
b0 Q
b0 i
b0 v
b0 V
b0 j
b0 u
b0 M
b0 h
b0 x
b0 O
b0 g
b0 w
b0 H
b0 e
b0 z
b0 I
b0 f
b0 y
b0 ;
b0 $"
b0 /"
b0 -
b0 3"
b0 A"
b0 :
b0 ."
b0 2"
b0 1"
b0 5"
b100000 K"
b0 .
b0 0"
b0 4"
b0 B"
0!
1"
#15000
b100000 K"
1!
#20000
0!
#25000
b100000 K"
1!
#30000
0!
0"
#35000
b100 .
b100 0"
b100 4"
b100 B"
1J
b100 -
b100 3"
b100 A"
1K
1!
#40000
0!
#45000
b1000 .
b1000 0"
b1000 4"
b1000 B"
1/
10
b1000 -
b1000 3"
b1000 A"
1!
#50000
0!
#55000
b10001100000000010000000000000000 1"
b10001100000000010000000000000000 5"
b1100 .
b1100 0"
b1100 4"
b1100 B"
b1100 -
b1100 3"
b1100 A"
1$
1&
1!
#60000
0!
#65000
b10001100000000100000000000000001 1"
b10001100000000100000000000000001 5"
b10000 .
b10000 0"
b10000 4"
b10000 B"
b10000 -
b10000 3"
b10000 A"
b10001100000000010000000000000000 :
b10001100000000010000000000000000 ."
b10001100000000010000000000000000 2"
1!
#70000
0!
#75000
b0 1"
b0 5"
1F
b1 A
b1 q
b1 +"
1@
b10100 .
b10100 0"
b10100 4"
b10100 B"
b1 =
b1 |
b1 F"
b100011 D
b100011 s
b100011 #"
b10100 -
b10100 3"
b10100 A"
b10001100000000100000000000000001 :
b10001100000000100000000000000001 ."
b10001100000000100000000000000001 2"
b10001100000000010000000000000000 ;
b10001100000000010000000000000000 $"
b10001100000000010000000000000000 /"
1!
#80000
0!
#85000
b1 G
b1 t
b1 )"
1@
1F
b10 A
b10 q
b10 +"
1T
b1 L
b1 ]
b1 n
b100011 P
b100011 _
b100011 l
b1 %"
b1 &"
b10 =
b10 |
b10 F"
b11000 .
b11000 0"
b11000 4"
b11000 B"
1U
b100011 Q
b100011 i
b100011 v
b1 M
b1 h
b1 x
b10001100000000100000000000000001 ;
b10001100000000100000000000000001 $"
b10001100000000100000000000000001 /"
b11000 -
b11000 3"
b11000 A"
b0 :
b0 ."
b0 2"
1!
#90000
0!
#95000
b100000000110000001000000001 7
b100000000110000001000000001 \
b100000000110000001000000001 6"
1@
0F
b0 G
b0 t
b0 )"
b0 A
b0 q
b0 +"
b11100 .
b11100 0"
b11100 4"
b11100 B"
b0 %"
b0 &"
b0 =
b0 |
b0 F"
b0 D
b0 s
b0 #"
b1 W
b1 `
b1 k
b10 L
b10 ]
b10 n
b11100 -
b11100 3"
b11100 A"
b0 ;
b0 $"
b0 /"
b1 V
b1 j
b1 u
b10 M
b10 h
b10 x
16
b1 1
b1 7"
b1 ?"
b1 2
b1 d
b1 >"
b100011 4
b100011 b
1!
#100000
0!
#105000
b1000000001110000011000000101 7
b1000000001110000011000000101 \
b1000000001110000011000000101 6"
b100000000110000001000000001 %
b100000000110000001000000001 G"
0T
b0 L
b0 ]
b0 n
b0 P
b0 _
b0 l
b0 W
b0 `
b0 k
b100000 .
b100000 0"
b100000 4"
b100000 B"
b1 #
b1 C"
b1 '
b1 ;"
b100000000110000001000000001 (
b100000000110000001000000001 :"
b10 1
b10 7"
b10 ?"
b10 2
b10 d
b10 >"
b1 8
b1 8"
b1 ="
b1 9
b1 [
b1 a
b1 <"
0U
b0 Q
b0 i
b0 v
b0 V
b0 j
b0 u
b0 M
b0 h
b0 x
b100000 -
b100000 3"
b100000 A"
1!
#110000
0!
#115000
b0 7
b0 \
b0 6"
b10101100000000010000000000000000 1"
b10101100000000010000000000000000 5"
b100100 .
b100100 0"
b100100 4"
b100100 B"
b1000000001110000011000000101 %
b1000000001110000011000000101 G"
b100100 -
b100100 3"
b100100 A"
06
b0 1
b0 7"
b0 ?"
b0 2
b0 d
b0 >"
b0 4
b0 b
b0 8
b0 8"
b0 ="
b0 9
b0 [
b0 a
b0 <"
b1 )
b1 9"
b10 #
b10 C"
b10 '
b10 ;"
b1000000001110000011000000101 (
b1000000001110000011000000101 :"
1!
#120000
0!
#125000
b1000100001100000100000 1"
b1000100001100000100000 5"
b0 %
b0 G"
b101000 .
b101000 0"
b101000 4"
b101000 B"
b0 )
b0 9"
b0 #
b0 C"
b0 '
b0 ;"
b0 (
b0 :"
b101000 -
b101000 3"
b101000 A"
b10101100000000010000000000000000 :
b10101100000000010000000000000000 ."
b10101100000000010000000000000000 2"
1!
#130000
0!
#135000
b100000000110000001000000001 B
b100000000110000001000000001 r
b100000000110000001000000001 *"
b10000000000001111111111011000 1"
b10000000000001111111111011000 5"
b100000000110000001000000001 *
b100000000110000001000000001 {
b100000000110000001000000001 I"
1E
b1 A
b1 q
b1 +"
0@
b101100 .
b101100 0"
b101100 4"
b101100 B"
b1 =
b1 |
b1 F"
b101011 D
b101011 s
b101011 #"
b101100 -
b101100 3"
b101100 A"
b1000100001100000100000 :
b1000100001100000100000 ."
b1000100001100000100000 2"
b10101100000000010000000000000000 ;
b10101100000000010000000000000000 $"
b10101100000000010000000000000000 /"
1!
#140000
0!
#145000
b100000000110000001000000001 >
b100000000110000001000000001 p
b100000000110000001000000001 ,"
b1000000001110000011000000101 *
b1000000001110000011000000101 {
b1000000001110000011000000101 I"
b100000000110000001000000001 +
b100000000110000001000000001 }
b100000000110000001000000001 J"
1@
b1000000001110000011000000101 <
b1000000001110000011000000101 o
b1000000001110000011000000101 -"
0E
b0 B
b0 r
b0 *"
b11 A
b11 q
b11 +"
b1000100001100000100000 1"
b1000100001100000100000 5"
0J
b100000000110000001000000001 N
b100000000110000001000000001 ^
b100000000110000001000000001 m
1R
b1 L
b1 ]
b1 n
b101011 P
b101011 _
b101011 l
b1100000100000 %"
b1100000100000 &"
b11 C
b11 ""
b11 D"
b10 =
b10 |
b10 F"
b1 ?
b1 ~
b1 E"
b0 D
b0 s
b0 #"
b110000 .
b110000 0"
b110000 4"
b110000 B"
0K
1S
b101011 Q
b101011 i
b101011 v
b1 M
b1 h
b1 x
b100000000110000001000000001 O
b100000000110000001000000001 g
b100000000110000001000000001 w
b1000100001100000100000 ;
b1000100001100000100000 $"
b1000100001100000100000 /"
b110000 -
b110000 3"
b110000 A"
b10000000000001111111111011000 :
b10000000000001111111111011000 ."
b10000000000001111111111011000 2"
1!
#150000
0!
#155000
b11111111111111111111111111011000 Y
b11111111111111111111111111011000 ("
b11111111111111111111111111011000 @"
1X
b10001100000000010000000000000000 1"
b10001100000000010000000000000000 5"
b0 *
b0 {
b0 I"
b0 +
b0 }
b0 J"
0@
b0 <
b0 o
b0 -"
b0 >
b0 p
b0 ,"
b0 A
b0 q
b0 +"
b1100 .
b1100 0"
b1100 4"
b1100 B"
b11111111111111111111111111011000 %"
b1111111111011000 &"
b11111 C
b11111 ""
b11111 D"
b0 =
b0 |
b0 F"
b0 ?
b0 ~
b0 E"
b100 D
b100 s
b100 #"
b1100000010100000100000000110 W
b1100000010100000100000000110 `
b1100000010100000100000000110 k
1J
b0 N
b0 ^
b0 m
0R
b11 L
b11 ]
b11 n
b0 P
b0 _
b0 l
b110100 -
b110100 3"
b110100 A"
b1000100001100000100000 :
b1000100001100000100000 ."
b1000100001100000100000 2"
b10000000000001111111111011000 ;
b10000000000001111111111011000 $"
b10000000000001111111111011000 /"
1K
0S
b0 Q
b0 i
b0 v
b11 M
b11 h
b11 x
b0 O
b0 g
b0 w
b1000000001110000011000000101 H
b1000000001110000011000000101 e
b1000000001110000011000000101 z
b100000000110000001000000001 I
b100000000110000001000000001 f
b100000000110000001000000001 y
0/
00
b100000000110000001000000001 3
b100000000110000001000000001 Z
b100000000110000001000000001 c
15
b1 1
b1 7"
b1 ?"
b1 2
b1 d
b1 >"
b101011 4
b101011 b
1!
#160000
0!
#165000
1@
b0 Y
b0 ("
b0 @"
0X
b10001100000000100000000000000001 1"
b10001100000000100000000000000001 5"
0J
b0 L
b0 ]
b0 n
b100 P
b100 _
b100 l
b0 W
b0 `
b0 k
b0 %"
b0 &"
b0 C
b0 ""
b0 D"
b0 D
b0 s
b0 #"
b10000 .
b10000 0"
b10000 4"
b10000 B"
0$
0&
b1 #
b1 C"
b1 '
b1 ;"
1/
10
b0 3
b0 Z
b0 c
05
b11 1
b11 7"
b11 ?"
b11 2
b11 d
b11 >"
b0 4
b0 b
b1100000010100000100000000110 8
b1100000010100000100000000110 8"
b1100000010100000100000000110 ="
b1100000010100000100000000110 9
b1100000010100000100000000110 [
b1100000010100000100000000110 a
b1100000010100000100000000110 <"
0K
b100 Q
b100 i
b100 v
b0 M
b0 h
b0 x
b0 H
b0 e
b0 z
b0 I
b0 f
b0 y
b0 ;
b0 $"
b0 /"
b10000 -
b10000 3"
b10000 A"
b10001100000000010000000000000000 :
b10001100000000010000000000000000 ."
b10001100000000010000000000000000 2"
1!
#170000
0!
#175000
b0 1"
b0 5"
b100000000110000001000000001 *
b100000000110000001000000001 {
b100000000110000001000000001 I"
1F
b1 A
b1 q
b1 +"
1@
b10100 .
b10100 0"
b10100 4"
b10100 B"
b1 =
b1 |
b1 F"
b100011 D
b100011 s
b100011 #"
1J
b0 P
b0 _
b0 l
b1100000010100000100000000110 %
b1100000010100000100000000110 G"
b10100 -
b10100 3"
b10100 A"
b10001100000000100000000000000001 :
b10001100000000100000000000000001 ."
b10001100000000100000000000000001 2"
b10001100000000010000000000000000 ;
b10001100000000010000000000000000 $"
b10001100000000010000000000000000 /"
1K
b0 Q
b0 i
b0 v
0/
00
b0 1
b0 7"
b0 ?"
b0 2
b0 d
b0 >"
b100 4
b100 b
b0 8
b0 8"
b0 ="
b0 9
b0 [
b0 a
b0 <"
1$
1&
b1100000010100000100000000110 )
b1100000010100000100000000110 9"
b11 #
b11 C"
b11 '
b11 ;"
1!
#180000
0!
#185000
b1000000001110000011000000101 *
b1000000001110000011000000101 {
b1000000001110000011000000101 I"
b1 G
b1 t
b1 )"
1@
1F
b10 A
b10 q
b10 +"
b0 %
b0 G"
1T
b1 L
b1 ]
b1 n
b100011 P
b100011 _
b100011 l
b1 %"
b1 &"
b10 =
b10 |
b10 F"
b11000 .
b11000 0"
b11000 4"
b11000 B"
0$
0&
b0 )
b0 9"
b0 #
b0 C"
b0 '
b0 ;"
1/
10
b0 4
b0 b
1U
b100011 Q
b100011 i
b100011 v
b1 M
b1 h
b1 x
b10001100000000100000000000000001 ;
b10001100000000100000000000000001 $"
b10001100000000100000000000000001 /"
b11000 -
b11000 3"
b11000 A"
b0 :
b0 ."
b0 2"
1!
#190000
0!
#195000
b100000000110000001000000001 7
b100000000110000001000000001 \
b100000000110000001000000001 6"
b0 *
b0 {
b0 I"
b0 <
b0 o
b0 -"
1@
0F
b0 G
b0 t
b0 )"
b0 A
b0 q
b0 +"
b11100 .
b11100 0"
b11100 4"
b11100 B"
b0 %"
b0 &"
b0 =
b0 |
b0 F"
b0 D
b0 s
b0 #"
b1 W
b1 `
b1 k
b10 L
b10 ]
b10 n
b11100 -
b11100 3"
b11100 A"
b0 ;
b0 $"
b0 /"
b1 V
b1 j
b1 u
b10 M
b10 h
b10 x
16
b1 1
b1 7"
b1 ?"
b1 2
b1 d
b1 >"
b100011 4
b100011 b
1$
1&
1!
#200000
0!
#205000
b1000000001110000011000000101 7
b1000000001110000011000000101 \
b1000000001110000011000000101 6"
b100000000110000001000000001 %
b100000000110000001000000001 G"
0T
b0 L
b0 ]
b0 n
b0 P
b0 _
b0 l
b0 W
b0 `
b0 k
b100000 .
b100000 0"
b100000 4"
b100000 B"
b1 #
b1 C"
b1 '
b1 ;"
b100000000110000001000000001 (
b100000000110000001000000001 :"
b10 1
b10 7"
b10 ?"
b10 2
b10 d
b10 >"
b1 8
b1 8"
b1 ="
b1 9
b1 [
b1 a
b1 <"
0U
b0 Q
b0 i
b0 v
b0 V
b0 j
b0 u
b0 M
b0 h
b0 x
b100000 -
b100000 3"
b100000 A"
1!
#210000
0!
#215000
b0 7
b0 \
b0 6"
b10101100000000010000000000000000 1"
b10101100000000010000000000000000 5"
b100100 .
b100100 0"
b100100 4"
b100100 B"
b1000000001110000011000000101 %
b1000000001110000011000000101 G"
b100100 -
b100100 3"
b100100 A"
06
b0 1
b0 7"
b0 ?"
b0 2
b0 d
b0 >"
b0 4
b0 b
b0 8
b0 8"
b0 ="
b0 9
b0 [
b0 a
b0 <"
b1 )
b1 9"
b10 #
b10 C"
b10 '
b10 ;"
b1000000001110000011000000101 (
b1000000001110000011000000101 :"
1!
#220000
0!
#225000
b1000100001100000100000 1"
b1000100001100000100000 5"
b0 %
b0 G"
b101000 .
b101000 0"
b101000 4"
b101000 B"
b0 )
b0 9"
b0 #
b0 C"
b0 '
b0 ;"
b0 (
b0 :"
b101000 -
b101000 3"
b101000 A"
b10101100000000010000000000000000 :
b10101100000000010000000000000000 ."
b10101100000000010000000000000000 2"
1!
#230000
0!
#235000
b100000000110000001000000001 B
b100000000110000001000000001 r
b100000000110000001000000001 *"
b10000000000001111111111011000 1"
b10000000000001111111111011000 5"
b100000000110000001000000001 *
b100000000110000001000000001 {
b100000000110000001000000001 I"
1E
b1 A
b1 q
b1 +"
0@
b101100 .
b101100 0"
b101100 4"
b101100 B"
b1 =
b1 |
b1 F"
b101011 D
b101011 s
b101011 #"
b101100 -
b101100 3"
b101100 A"
b1000100001100000100000 :
b1000100001100000100000 ."
b1000100001100000100000 2"
b10101100000000010000000000000000 ;
b10101100000000010000000000000000 $"
b10101100000000010000000000000000 /"
1!
#240000
0!
#245000
b100000000110000001000000001 >
b100000000110000001000000001 p
b100000000110000001000000001 ,"
b1100000010100000100000000110 ,
b1100000010100000100000000110 !"
b1100000010100000100000000110 H"
b1000000001110000011000000101 *
b1000000001110000011000000101 {
b1000000001110000011000000101 I"
b100000000110000001000000001 +
b100000000110000001000000001 }
b100000000110000001000000001 J"
1@
b1000000001110000011000000101 <
b1000000001110000011000000101 o
b1000000001110000011000000101 -"
0E
b0 B
b0 r
b0 *"
b11 A
b11 q
b11 +"
b1000100001100000100000 1"
b1000100001100000100000 5"
0J
b100000000110000001000000001 N
b100000000110000001000000001 ^
b100000000110000001000000001 m
1R
b1 L
b1 ]
b1 n
b101011 P
b101011 _
b101011 l
b1100000100000 %"
b1100000100000 &"
b11 C
b11 ""
b11 D"
b10 =
b10 |
b10 F"
b1 ?
b1 ~
b1 E"
b0 D
b0 s
b0 #"
b110000 .
b110000 0"
b110000 4"
b110000 B"
0K
1S
b101011 Q
b101011 i
b101011 v
b1 M
b1 h
b1 x
b100000000110000001000000001 O
b100000000110000001000000001 g
b100000000110000001000000001 w
b1000100001100000100000 ;
b1000100001100000100000 $"
b1000100001100000100000 /"
b110000 -
b110000 3"
b110000 A"
b10000000000001111111111011000 :
b10000000000001111111111011000 ."
b10000000000001111111111011000 2"
1!
#250000
0!
#255000
b11111111111111111111111111011000 Y
b11111111111111111111111111011000 ("
b11111111111111111111111111011000 @"
1X
b10001100000000010000000000000000 1"
b10001100000000010000000000000000 5"
b0 ,
b0 !"
b0 H"
b0 *
b0 {
b0 I"
b0 +
b0 }
b0 J"
0@
b0 <
b0 o
b0 -"
b0 >
b0 p
b0 ,"
b0 A
b0 q
b0 +"
b1100 .
b1100 0"
b1100 4"
b1100 B"
b11111111111111111111111111011000 %"
b1111111111011000 &"
b11111 C
b11111 ""
b11111 D"
b0 =
b0 |
b0 F"
b0 ?
b0 ~
b0 E"
b100 D
b100 s
b100 #"
b1100000010100000100000000110 W
b1100000010100000100000000110 `
b1100000010100000100000000110 k
1J
b0 N
b0 ^
b0 m
0R
b11 L
b11 ]
b11 n
b0 P
b0 _
b0 l
b110100 -
b110100 3"
b110100 A"
b1000100001100000100000 :
b1000100001100000100000 ."
b1000100001100000100000 2"
b10000000000001111111111011000 ;
b10000000000001111111111011000 $"
b10000000000001111111111011000 /"
1K
0S
b0 Q
b0 i
b0 v
b11 M
b11 h
b11 x
b0 O
b0 g
b0 w
b1000000001110000011000000101 H
b1000000001110000011000000101 e
b1000000001110000011000000101 z
b100000000110000001000000001 I
b100000000110000001000000001 f
b100000000110000001000000001 y
0/
00
b100000000110000001000000001 3
b100000000110000001000000001 Z
b100000000110000001000000001 c
15
b1 1
b1 7"
b1 ?"
b1 2
b1 d
b1 >"
b101011 4
b101011 b
1!
#260000
0!
#265000
1@
b0 Y
b0 ("
b0 @"
0X
b10001100000000100000000000000001 1"
b10001100000000100000000000000001 5"
0J
b0 L
b0 ]
b0 n
b100 P
b100 _
b100 l
b0 W
b0 `
b0 k
b0 %"
b0 &"
b0 C
b0 ""
b0 D"
b0 D
b0 s
b0 #"
b10000 .
b10000 0"
b10000 4"
b10000 B"
0$
0&
b1 #
b1 C"
b1 '
b1 ;"
1/
10
b0 3
b0 Z
b0 c
05
b11 1
b11 7"
b11 ?"
b11 2
b11 d
b11 >"
b0 4
b0 b
b1100000010100000100000000110 8
b1100000010100000100000000110 8"
b1100000010100000100000000110 ="
b1100000010100000100000000110 9
b1100000010100000100000000110 [
b1100000010100000100000000110 a
b1100000010100000100000000110 <"
0K
b100 Q
b100 i
b100 v
b0 M
b0 h
b0 x
b0 H
b0 e
b0 z
b0 I
b0 f
b0 y
b0 ;
b0 $"
b0 /"
b10000 -
b10000 3"
b10000 A"
b10001100000000010000000000000000 :
b10001100000000010000000000000000 ."
b10001100000000010000000000000000 2"
1!
#270000
0!
#275000
b0 1"
b0 5"
b100000000110000001000000001 *
b100000000110000001000000001 {
b100000000110000001000000001 I"
1F
b1 A
b1 q
b1 +"
1@
b10100 .
b10100 0"
b10100 4"
b10100 B"
b1 =
b1 |
b1 F"
b100011 D
b100011 s
b100011 #"
1J
b0 P
b0 _
b0 l
b1100000010100000100000000110 %
b1100000010100000100000000110 G"
b10100 -
b10100 3"
b10100 A"
b10001100000000100000000000000001 :
b10001100000000100000000000000001 ."
b10001100000000100000000000000001 2"
b10001100000000010000000000000000 ;
b10001100000000010000000000000000 $"
b10001100000000010000000000000000 /"
1K
b0 Q
b0 i
b0 v
0/
00
b0 1
b0 7"
b0 ?"
b0 2
b0 d
b0 >"
b100 4
b100 b
b0 8
b0 8"
b0 ="
b0 9
b0 [
b0 a
b0 <"
1$
1&
b1100000010100000100000000110 )
b1100000010100000100000000110 9"
b11 #
b11 C"
b11 '
b11 ;"
1!
#280000
0!
#285000
b1000000001110000011000000101 *
b1000000001110000011000000101 {
b1000000001110000011000000101 I"
b1 G
b1 t
b1 )"
1@
1F
b10 A
b10 q
b10 +"
b0 %
b0 G"
1T
b1 L
b1 ]
b1 n
b100011 P
b100011 _
b100011 l
b1 %"
b1 &"
b10 =
b10 |
b10 F"
b11000 .
b11000 0"
b11000 4"
b11000 B"
0$
0&
b0 )
b0 9"
b0 #
b0 C"
b0 '
b0 ;"
1/
10
b0 4
b0 b
1U
b100011 Q
b100011 i
b100011 v
b1 M
b1 h
b1 x
b10001100000000100000000000000001 ;
b10001100000000100000000000000001 $"
b10001100000000100000000000000001 /"
b11000 -
b11000 3"
b11000 A"
b0 :
b0 ."
b0 2"
1!
#290000
0!
